So sánh dplyr và pandas cho data manipulation | Khoa Học Dữ Liệu
…
Cũng giống như dplyr trong R, về cơ bản Pandas là một thư viện mã nguồn mở, được cộng đồng đánh giá là high-performance, nó hỗ trợ đắc lực trong thao tác với dữ liệu và giúp cho việc xử lý dữ liệu, tính toán sẽ dễ dàng hơn rất nhiều cách truyền thống trong Python.

Load dữ liệu để demo:

# R
# Nạp R built-in dataset mtcars
data(mtcars)
# Chuyển dữ dữ liệu về dạng tibble(hay còn gọi là data_frame) - đây là 1 
# kiểu cấu trúc dữ liệu mới trong R nhằm đáp ứng nhu cầu về tốc độ tính toán
# khi xử lí dữ liệu có kích thước lớn
data_r <- as_tibble(mtcars)
data_r

## # A tibble: 32 x 11
##      mpg   cyl  disp    hp  drat    wt  qsec    vs    am  gear  carb
##    <dbl> <dbl> <dbl> <dbl> <dbl> <dbl> <dbl> <dbl> <dbl> <dbl> <dbl>
##  1  21       6  160    110  3.9   2.62  16.5     0     1     4     4
##  2  21       6  160    110  3.9   2.88  17.0     0     1     4     4
##  3  22.8     4  108     93  3.85  2.32  18.6     1     1     4     1
##  4  21.4     6  258    110  3.08  3.22  19.4     1     0     3     1
##  5  18.7     8  360    175  3.15  3.44  17.0     0     0     3     2
##  6  18.1     6  225    105  2.76  3.46  20.2     1     0     3     1
##  7  14.3     8  360    245  3.21  3.57  15.8     0     0     3     4
##  8  24.4     4  147.    62  3.69  3.19  20       1     0     4     2
##  9  22.8     4  141.    95  3.92  3.15  22.9     1     0     4     2
## 10  19.2     6  168.   123  3.92  3.44  18.3     1     0     4     4
## # ... with 22 more rows
…
##    cyl   disp     hp  drat     wt   qsec   vs   am  gear  carb
## 0  6.0  160.0  110.0  3.90  2.620  16.46  0.0  1.0   4.0   4.0
## 1  6.0  160.0  110.0  3.90  2.875  17.02  0.0  1.0   4.0   4.0
## 2  4.0  108.0   93.0  3.85  2.320  18.61  1.0  1.0   4.0   1.0
## 3  6.0  258.0  110.0  3.08  3.215  19.44  1.0  0.0   3.0   1.0
## 4  8.0  360.0  175.0  3.15  3.440  17.02  0.0  0.0   3.0   2.0

3.Sắp Xếp dữ liệu theo thứ tự

# R
# Sắp xếp dữ liệu theo giá trị tăng dần của cột cyl
arrange(data_r, cyl)

## # A tibble: 32 x 11
##      mpg   cyl  disp    hp  drat    wt  qsec    vs    am  gear  carb
##    <dbl> <dbl> <dbl> <dbl> <dbl> <dbl> <dbl> <dbl> <dbl> <dbl> <dbl>
##  1  22.8     4 108      93  3.85  2.32  18.6     1     1     4     1
##  2  24.4     4 147.     62  3.69  3.19  20       1     0     4     2
##  3  22.8     4 141.     95  3.92  3.15  22.9     1     0     4     2
##  4  32.4     4  78.7    66  4.08  2.2   19.5     1     1     4     1
##  5  30.4     4  75.7    52  4.93  1.62  18.5     1     1     4     2
##  6  33.9     4  71.1    65  4.22  1.84  19.9     1     1     4     1
##  7  21.5     4 120.     97  3.7   2.46  20.0     1     0     3     1
##  8  27.3     4  79      66  4.08  1.94  18.9     1     1     4     1
##  9  26       4 120.     91  4.43  2.14  16.7     0     1     5     2
## 10  30.4     4  95.1   113  3.77  1.51  16.9     1     1     5     2
## # ... with 22 more rows
…
# R
# Sắp xếp dữ liệu theo giá trị giảm dần của cột cyl
arrange(data_r, desc(cyl))

## # A tibble: 32 x 11
##      mpg   cyl  disp    hp  drat    wt  qsec    vs    am  gear  carb
##    <dbl> <dbl> <dbl> <dbl> <dbl> <dbl> <dbl> <dbl> <dbl> <dbl> <dbl>
##  1  18.7     8  360    175  3.15  3.44  17.0     0     0     3     2
##  2  14.3     8  360    245  3.21  3.57  15.8     0     0     3     4
##  3  16.4     8  276.   180  3.07  4.07  17.4     0     0     3     3
##  4  17.3     8  276.   180  3.07  3.73  17.6     0     0     3     3
##  5  15.2     8  276.   180  3.07  3.78  18       0     0     3     3
##  6  10.4     8  472    205  2.93  5.25  18.0     0     0     3     4
##  7  10.4     8  460    215  3     5.42  17.8     0     0     3     4
##  8  14.7     8  440    230  3.23  5.34  17.4     0     0     3     4
##  9  15.5     8  318    150  2.76  3.52  16.9     0     0     3     2
## 10  15.2     8  304    150  3.15  3.44  17.3     0     0     3     2
## # ... with 22 more rows
…
4. Tạo thuộc tính mới

# R
# Tạo và thêm biến mới có tên cyl2
mutate(data_r, cyl2 = mean(cyl))

## # A tibble: 32 x 12
##      mpg   cyl  disp    hp  drat    wt  qsec    vs    am  gear  carb  cyl2
##    <dbl> <dbl> <dbl> <dbl> <dbl> <dbl> <dbl> <dbl> <dbl> <dbl> <dbl> <dbl>
##  1  21       6  160    110  3.9   2.62  16.5     0     1     4     4  6.19
##  2  21       6  160    110  3.9   2.88  17.0     0     1     4     4  6.19
##  3  22.8     4  108     93  3.85  2.32  18.6     1     1     4     1  6.19
##  4  21.4     6  258    110  3.08  3.22  19.4     1     0     3     1  6.19
##  5  18.7     8  360    175  3.15  3.44  17.0     0     0     3     2  6.19
##  6  18.1     6  225    105  2.76  3.46  20.2     1     0     3     1  6.19
##  7  14.3     8  360    245  3.21  3.57  15.8     0     0     3     4  6.19
##  8  24.4     4  147.    62  3.69  3.19  20       1     0     4     2  6.19
##  9  22.8     4  141.    95  3.92  3.15  22.9     1     0     4     2  6.19
## 10  19.2     6  168.   123  3.92  3.44  18.3     1     0     4     4  6.19
## # ... with 22 more rows
…
