Cách sử dụng các toán tử pipes trong R | Cuong Sai
…
2. Toán tử %<>% (compound assignment pipe-operator)

Nguyên lý của pipe %<>%: Thực hiện nhiệm vụ tương tự như với toán tử %>%, tuy nhiên kết quả cuối cùng của dòng chảy dữ liệu được gán lại vào đối tượng ban đầu của dòng chảy.

Ví dụ:

diamonds %<>%
  filter(color == "I") %>% select(carat, cut, color)
diamonds

## # A tibble: 5,422 x 3
##    carat cut       color
##    <dbl> <ord>     <ord>
##  1 0.290 Premium   I    
##  2 0.24  Very Good I    
##  3 0.3   Ideal     I    
##  4 0.3   Good      I    
##  5 0.24  Premium   I    
##  6 0.33  Ideal     I    
##  7 0.33  Ideal     I    
##  8 0.32  Ideal     I    
##  9 0.3   Ideal     I    
## 10 0.3   Very Good I    
## # ... with 5,412 more rows
…
